{
	"header": {
		"status": "OK",
		"message": "",
		"count": "1"
	},
	"response": {
		"LIBELLE": "Décaissement par Chéque 0123456",
		"MT_HT": "368 700,00",
		"MT_TAXE": "72 500,00",
		"MT_TTC": "441 200,00",
		"DATE_REGLEMENT": "11-MAR-14",
		"DATE_ECHEANCE": "11-MAR-14",
		"DATE_EXIGIBILITE": "11-MAR-14",
		"MODE_REGLEMENT": "Cheque",
		"NUM_CHEQUE": "0123456"
	}
}
