{
	"header": {
		"status": "OK",
		"message": "",
		"count": "2"
	},
	"response": [
				 {
				 "TIERS": "T-00000001",
				 "IMMOBILISATION": "0000123456",
				 "DESIGNATION_BIEN": "UN TRACTEUR MAN TGS19440 BBS ",
				 "CODE_TYPE_LIGNE": "MATE",
				 "TYPE_LIGNE": "Materiel",
				 "MT_HT": "780 000,00",
				 "MT_TVA": "156 000,00",
				 "MT_TTC": "936 000,00",
				 "TVA": "20",
				 "SOLDE_HT": "780 000,00",
				 "SOLDE_TTC": "936 000,00",
				 "CODE_DEVISE": "MAD"
				 },
				 {
				 "TIERS": "T-00000001",
				 "IMMOBILISATION": "0000123456",
				 "DESIGNATION_BIEN": "(1) UN TRACTEUR MAN TGS19440 BBS  ",
				 "CODE_TYPE_LIGNE": "MATE",
				 "TYPE_LIGNE": "Materiel",
				 "MT_HT": "780 000,00",
				 "MT_TVA": "156 000,00",
				 "MT_TTC": "936 000,00",
				 "TVA": "20,00",
				 "SOLDE_HT": "780 000,00",
				 "SOLDE_TTC": "936 000,00",
				 "CODE_DEVISE": "MAD"
				 }
				 ]
}
